…
Run `sim_mean_sd` 100 times to see the effect of randomness in $x_i$ on
estimates $\hat{\mu}$, $\hat{\sigma}$

``` r
output = vector("list", 100)

for (i in 1:100){
  output[[i]] = sim_mean_sd(30)
}

sim_results = bind_rows(output)
sim_results
```

    ## # A tibble: 100 × 2
    ##    mu_hat sigma_hat
    ##     <dbl>     <dbl>
    ##  1   2.25      2.77
    ##  2   2.40      2.39
    ##  3   2.33      2.88
    ##  4   2.34      2.65
    ##  5   1.01      2.77
    ##  6   2.71      3.17
    ##  7   2.20      3.25
    ##  8   1.29      3.04
    ##  9   2.07      2.79
    ## 10   2.41      3.09
    ## # ℹ 90 more rows
…
